[
    {
        "comment": "DISCOUNT UPDATED EXAMPLE",
        "_id": "c1i",
        "_parentId": "b1i",
        "_type": "component",
        "_component": "stacklist",
        "_graphicStacklist": true,
        "_isResetOnRevisit": true,
        "_layout": "full",
        "title": "Stacklist",
        "displayTitle": "Stacklist",
        "body": "The stacklist allows you to present bits of information at a time.",
        "_button": {
            "startText": "Next",
            "continueText": "Next"
        },
        "_graphic": {
            "src": "course/en/assets/images/single_width_small.jpg"
        },
        "_audio": {
            "mp3": "course/en/assets/audio/example.mp3"
        },
        "_items": [
            {
                "body": "This component is useful for making boring text lists that little bit more interactive.",
                "_graphic": {
                    "src": "course/en/assets/images/single_width_small.jpg"
                },
                "_audio": {
                    "mp3": "course/en/assets/audio/example.mp3"
                }
            },
            {
                "body": "List items slide in from alternating sides.",
                "_graphic": {
                    "src": "course/en/assets/images/single_width_small.jpg"
                },
                "_audio": {
                    "mp3": "course/en/assets/audio/example.mp3"
                }
            },
            {
                "body": "There is no limit to the number of items you can have.",
                "_graphic": {
                    "src": "course/en/assets/images/single_width_small.jpg"
                },
                "_audio": {
                    "mp3": "course/en/assets/audio/example.mp3"
                }
            },
            {
                "body": "Although if you have too many it will be a bit boring.",
                "_graphic": {
                    "src": "course/en/assets/images/single_width_small.jpg"
                },
                "_audio": {
                    "mp3": "course/en/assets/audio/example.mp3"
                }
            },     
            {
                "body": "At least now you get the gist of how this works.",
                "_graphic": {
                    "src": "course/en/assets/images/single_width_small.jpg"
                },
                "_audio": {
                    "mp3": "course/en/assets/audio/example.mp3"
                }
            },  
            {
                "body": "That's pretty much it.",
                "_graphic": {
                    "src": "course/en/assets/images/single_width_small.jpg"
                },
                "_audio": {
                    "mp3": "course/en/assets/audio/example.mp3"
                }
            }        
        ]
    },
    {
        "comment": "ORIGINAL ADAPT FRAMEWORK EXAMPLE",
        "_id": "c-01",
        "_parentId": "b-01",
        "_type": "component",
        "_component": "stacklist",
        "_classes": "",
        "_layout": "full",
        "title": "Stacklist",
        "displayTitle": "Stacklist",
        "body": "",
        "_button": {
            "startText": "Let's get started",
            "continueText": "Continue"
        },
        "_items": [
            {
                "body": "This component is useful for making boring text lists that little bit more interactive.",
                "next": "Show me more!"
            },
            {
                "body": "List items slide in from alternating sides.",
                "next": "... and you can modify this text!"
            },
            {
                "body": "There is no limit to the number of items you can have.",
                "next": "It's localisation friendly"
            },
            {
                "body": "Although if you have too many it will be a bit boring.",
                "next": "... but you can customize it"
            },     
            {
                "body": "At least now you get the gist of how this works.",
                "next": "I get it!"
            },  
            {
                "body": "That's pretty much it.",
                "next": "Step 5"
            }        
        ]
    }
]