[
    {
        "_id": "c1h",
        "_parentId": "b1h",
        "_type": "component",
        "_component": "flipcard",
        "_layout": "full",
        "title": "Flip Card",
        "displayTitle": "Flip Card",
        "body": "This is optional body text. Click the image below to reveal the text.",
        "_flipType": "allFlip",
        "_flipTime": 400,
        "_items": [
            {
                "frontImage": {
                    "src": "course/en/assets/images/flip_card.jpg"
                },
                "_audio": {
                    "mp3": "course/en/assets/audio/example.mp3"
                },
                "backTitle": "Heading 1",
                "backBody": "This is display text 1."
            },
            {
                "frontImage": {
                    "src": "course/en/assets/images/flip_card.jpg"
                },
                "_audio": {
                    "mp3": "course/en/assets/audio/example.mp3"
                },
                "frontTitle": "Heading 2",
                "backTitle": "Heading 2",
                "backBody": "<ul><li>This is list item 1.</li><li>This is list item 2.</li></ul>",
                "backgroundImage": true
            },
            {
                "frontImage": {
                    "src": "course/en/assets/images/flip_card.jpg"
                },
                "_audio": {
                    "mp3": "course/en/assets/audio/example.mp3"
                },
                "backTitle": "Heading 3",
                "backBody": "<ul><li>This is list item 1.</li><li>This is list item 2.</li></ul>"
            }
        ]
    },
    {
        "comment": "ORIGINAL ADAPT FRAMEWORK EXAMPLE",
        "_id": "c-135",
        "_parentId": "b-70",
        "_type": "component",
        "_component": "flipcard",
        "_classes": "",
        "_layout": "full",
        "title": "Flip Card",
        "displayTitle": "Flip Card",
        "body": "This is optional body text. Click the image below to reveal the text.",
        "instruction": "",
        "_flipType": "allFlip",
        "_flipTime": 400,
        "_items": [
            {
                "frontImage": {
                    "src": "course/en/images/flip_1.png",
                    "alt": "flipcard item 1 graphic alt text here."
                },
                "backTitle": "Heading 1",
                "backBody": "This is display text 1."
            },
            {
                "frontImage": {
                    "src": "course/en/images/flip_2.png",
                    "alt": "flipcard item 1 graphic alt text here."
                },
                "backTitle": "Heading 2",
                "backBody": "<ul><li>This is list item 1.</li><li>This is list item 2.</li></ul>"
            }
        ]
    }
]
