[
    {
        "comment": "DISCOUNT UPDATED EXAMPLE",
        "_id": "c3d",
        "_parentId": "b3d",
        "_type": "component",
        "_component": "dragndrop",
        "_layout": "full",
        "_canShowFeedback": true,
        "_attempts": 99,
        "title": "Drag'n'Drop",
        "displayTitle": "Drag'n'Drop",
        "body": "This component offers a way for users to place steps in the correct order.",
        "_items": [
            {
                "text": "1",
                "accepted": "A"
            },
            {
                "text": "2",
                "accepted": "B"
            },
            {
                "text": "3",
                "accepted": "C"
            }
        ],
        "_feedback":{
            "correct":"Good Job!",
            "_incorrect": {
                "notFinal": "Incorrect. Please try again.",
                "final": "Incorrect."
            },
            "_partlyCorrect": {
                "notFinal": "Incorrect. Please try again.",
                "final": "Incorrect."
            }
        }
    },
    {
        "comment": "ORIGINAL ADAPT FRAMEWORK EXAMPLE",
        "_id": "c-01",
        "_parentId": "b-01",
        "_type": "component",
        "_component": "dragndrop",
        "_classes": "",
        "_layout": "full",
        "_attempts": 1,
        "_questionWeight": 100,
        "title": "Superhero Colours",
        "displayTitle": "Colourful Characters",
        "body": "Do you know what colour these well-known superheroes are? Drag the items below into the correct slots",
        "instruction": "",
        "_items": [
            {
                "text": "What colour is The Hulk?",
                "accepted": "Green"
            },
            {
                "text": "What colour is Spiderman?",
                "accepted": ["Red", "Blue"]
            },
            {
                "text": "What colour is Wolverine?",
                "accepted": "Yellow"
            }

        ],
        "dummyAnswers": ["Black", "Brown"]
    }
]
